[
    {
        "id": 1,
        "id_categoria": 5,
        "domanda": "Qual'è la radice quadrata di 16?",
        "risposte": [
            {
                "id": 1,
                "testo": "la radice quadrata è 2"
            },
            {
                "id": 2,
                "testo": "la radice quadrata è 3"
            },
            {
                "id": 3,
                "testo": "la radice quadrata è 4"
            },
            {
                "id": 4,
                "testo": "la radice quadrata è 5"
            }
        ]
    
    },
    {
        "id": 2,
        "id_categoria": 1,
        "domanda": "Quanto fa 6+6?",
        "risposte": [
            {
                "id": 5,
                "testo": "la somma è 5"
            },
            {
                "id": 6,
                "testo": "la somma è 12"
            },
            {
                "id": 7,
                "testo": "la somma è 16"
            },
            {
                "id": 8,
                "testo": "la somma è 66"
            }
        ]
    },
    {
        "id": 3,
        "id_categoria": 5,
        "domanda": "Quanto fa 10x10?",
        "risposte": [
            {
                "id": 9,
                "testo": "il risultato è 2"
            },
            {
                "id": 10,
                "testo": "il risultato è 30"
            },
            {
                "id": 11,
                "testo": "il risultato è 45"
            },
            {
                "id": 12,
                "testo": "il risultato è 100"
            }
        ]
    },
    {
        "id": 4,
        "id_categoria": 5,
        "domanda": "Qual'è il resto di 25/2?",
        "risposte": [
            {
                "id": 13,
                "testo": "il resto è 2"
            },
            {
                "id": 14,
                "testo": "il resto è 1"
            },
            {
                "id": 15,
                "testo": "il resto è 4"
            },
            {
                "id": 16,
                "testo": "il resto è 5"
            }
        ]
    }

]